{
  "Comment.nvim": { "branch": "master", "commit": "0236521ea582747b58869cb72f70ccfa967d2e89" },
  "LuaSnip": { "branch": "master", "commit": "f3b3d3446bcbfa62d638b1903ff00a78b2b730a1" },
  "adwaita.nvim": { "branch": "main", "commit": "981bce791959d79cd1316e59e23906e3c05efb44" },
  "cmp-nvim-lsp": { "branch": "main", "commit": "5af77f54de1b16c34b23cba810150689a3a90312" },
  "cmp_luasnip": { "branch": "master", "commit": "05a9ab28b53f71d1aece421ef32fee2cb857a843" },
  "crates.nvim": { "branch": "main", "commit": "ec2b04a380c9f3a8e6ca38c230e4990d71978143" },
  "fidget.nvim": { "branch": "main", "commit": "0ba1e16d07627532b6cae915cc992ecac249fb97" },
  "friendly-snippets": { "branch": "main", "commit": "dcd4a586439a1c81357d5b9d26319ae218cc9479" },
  "gitsigns.nvim": { "branch": "main", "commit": "2c2463dbd82eddd7dbab881c3a62cfbfbe3c67ae" },
  "indent-blankline.nvim": { "branch": "master", "commit": "821a7acd88587d966f7e464b0b3031dfe7f5680c" },
  "lazy.nvim": { "branch": "main", "commit": "aedcd79811d491b60d0a6577a9c1701063c2a609" },
  "lualine.nvim": { "branch": "master", "commit": "7d131a8d3ba5016229e8a1d08bf8782acea98852" },
  "mason-lspconfig.nvim": { "branch": "main", "commit": "21d33d69a81f6351e5a5f49078b2e4f0075c8e73" },
  "mason.nvim": { "branch": "main", "commit": "3b5068f0fc565f337d67a2d315d935f574848ee7" },
  "neodev.nvim": { "branch": "main", "commit": "84e0290f5600e8b89c0dfcafc864f45496a53400" },
  "nvim-cmp": { "branch": "main", "commit": "04e0ca376d6abdbfc8b52180f8ea236cbfddf782" },
  "nvim-dap": { "branch": "master", "commit": "fc880e82059eb21c0fa896be60146e5f17680648" },
  "nvim-lspconfig": { "branch": "master", "commit": "9553725789be682ecd945a527ec552e489ea8534" },
  "nvim-tree.lua": { "branch": "master", "commit": "5a87ffe35c4739ffb6b62052572583ad277a20ae" },
  "nvim-treesitter": { "branch": "master", "commit": "a47540fd737eb5c03ee21ee69eb8134ce5568fb6" },
  "nvim-treesitter-textobjects": { "branch": "master", "commit": "95933e762e28f9d38b572d65e7e4da9d2f4d90cb" },
  "nvim-web-devicons": { "branch": "master", "commit": "b77921fdc44833c994fdb389d658ccbce5490c16" },
  "plenary.nvim": { "branch": "master", "commit": "4f71c0c4a196ceb656c824a70792f3df3ce6bb6d" },
  "rust-tools.nvim": { "branch": "master", "commit": "676187908a1ce35ffcd727c654ed68d851299d3e" },
  "rust.vim": { "branch": "master", "commit": "889b9a7515db477f4cb6808bef1769e53493c578" },
  "telescope-fzf-native.nvim": { "branch": "main", "commit": "6c921ca12321edaa773e324ef64ea301a1d0da62" },
  "telescope.nvim": { "branch": "0.1.x", "commit": "d90956833d7c27e73c621a61f20b29fdb7122709" },
  "toggleterm.nvim": { "branch": "main", "commit": "066cccf48a43553a80a210eb3be89a15d789d6e6" },
  "vim-fugitive": { "branch": "master", "commit": "2e88f14a585c014691904ba8fe39e6ea851c9422" },
  "vim-rhubarb": { "branch": "master", "commit": "ee69335de176d9325267b0fd2597a22901d927b1" },
  "vim-sleuth": { "branch": "master", "commit": "1cc4557420f215d02c4d2645a748a816c220e99b" },
  "which-key.nvim": { "branch": "main", "commit": "4433e5ec9a507e5097571ed55c02ea9658fb268a" }
}